quartus_project/simulation/qsim/ARQ_Lab1.msim.vcd
$comment
	File created using the following command:
		vcd file ARQ_Lab1.msim.vcd -direction
$end
$date
	Sun Jul 14 19:31:39 2019
$end
$version
	ModelSim Version 10.1d
$end
$timescale
	1ps
$end
$scope module ARQ_Lab1_vlg_vec_tst $end
$var reg 1 ! Clock $end
$var reg 1 " Clock14 $end
$var reg 1 # Externo0 $end
$var reg 1 $ Externo1 $end
$var reg 1 % Externo2 $end
$var reg 1 & Externo3 $end
$var wire 1 ' CLK0 $end
$var wire 1 ( CLK1 $end
$var wire 1 ) CLK2 $end
$var wire 1 * CLK3 $end
$var wire 1 + Cout $end
$var wire 1 , Enderecoteste [4] $end
$var wire 1 - Enderecoteste [3] $end
$var wire 1 . Enderecoteste [2] $end
$var wire 1 / Enderecoteste [1] $end
$var wire 1 0 Enderecoteste [0] $end
$var wire 1 1 Instrucao [9] $end
$var wire 1 2 Instrucao [8] $end
$var wire 1 3 Instrucao [7] $end
$var wire 1 4 Instrucao [6] $end
$var wire 1 5 Instrucao [5] $end
$var wire 1 6 Instrucao [4] $end
$var wire 1 7 Instrucao [3] $end
$var wire 1 8 Instrucao [2] $end
$var wire 1 9 Instrucao [1] $end
$var wire 1 : Instrucao [0] $end
$var wire 1 ; N $end
$var wire 1 < Q0 $end
$var wire 1 = Q1 $end
$var wire 1 > Q2 $end
$var wire 1 ? Q3 $end
$var wire 1 @ R0 [3] $end
$var wire 1 A R0 [2] $end
$var wire 1 B R0 [1] $end
$var wire 1 C R0 [0] $end
$var wire 1 D R1 [3] $end
$var wire 1 E R1 [2] $end
$var wire 1 F R1 [1] $end
$var wire 1 G R1 [0] $end
$var wire 1 H R2 [3] $end
$var wire 1 I R2 [2] $end
$var wire 1 J R2 [1] $end
$var wire 1 K R2 [0] $end
$var wire 1 L R3 [3] $end
$var wire 1 M R3 [2] $end
$var wire 1 N R3 [1] $end
$var wire 1 O R3 [0] $end
$var wire 1 P Write_Enable $end
$var wire 1 Q Z $end
$var wire 1 R sampler $end
$scope module i1 $end
$var wire 1 S gnd $end
$var wire 1 T vcc $end
$var wire 1 U unknown $end
$var tri1 1 V devclrn $end
$var tri1 1 W devpor $end
$var tri1 1 X devoe $end
$var wire 1 Y inst16|Add1~0_combout $end
$var wire 1 Z inst16|Add1~5_combout $end
$var wire 1 [ inst16|Add1~9 $end
$var wire 1 \ inst16|Add1~11_combout $end
$var wire 1 ] MuxA|inst2|$00000|auto_generated|result_node[2]~1_combout $end
$var wire 1 ^ MBSelect|$00000|auto_generated|result_node[1]~4_combout $end
$var wire 1 _ MBSelect|$00000|auto_generated|result_node[1]~5_combout $end
$var wire 1 ` MuxA|inst2|$00000|auto_generated|result_node[0]~3_combout $end
$var wire 1 a Clock~combout $end
$var wire 1 b Clock~clkctrl_outclk $end
$var wire 1 c inst4~clkctrl_outclk $end
$var wire 1 d inst~clkctrl_outclk $end
$var wire 1 e inst16|auxiliar~regout $end
$var wire 1 f inst16|endereco_instrucao~0_combout $end
$var wire 1 g inst16|Add1~13_combout $end
$var wire 1 h inst16|Add1~7_combout $end
$var wire 1 i inst16|Add1~1 $end
$var wire 1 j inst16|Add1~2_combout $end
$var wire 1 k inst16|Add1~4_combout $end
$var wire 1 l inst16|Equal0~0_combout $end
$var wire 1 m inst16|endereco~0_combout $end
$var wire 1 n inst16|endereco_instrucao~4_combout $end
$var wire 1 o inst16|endereco_instrucao~1_combout $end
$var wire 1 p inst16|endereco_instrucao~3_combout $end
$var wire 1 q inst16|Add1~3 $end
$var wire 1 r inst16|Add1~6 $end
$var wire 1 s inst16|Add1~8_combout $end
$var wire 1 t inst16|Add1~10_combout $end
$var wire 1 u inst16|endereco_instrucao~2_combout $end
$var wire 1 v inst14|RAM~0_combout $end
$var wire 1 w inst19|WideOr2~2_combout $end
$var wire 1 x inst14|RAM~2_combout $end
$var wire 1 y inst14|RAM~3_combout $end
$var wire 1 z inst19|S1~combout $end
$var wire 1 { Clock14~combout $end
$var wire 1 | inst~combout $end
$var wire 1 } inst4~combout $end
$var wire 1 ~ inst19|Selector18~0_combout $end
$var wire 1 !! inst19|A1~combout $end
$var wire 1 "! inst14|RAM~1_combout $end
$var wire 1 #! inst14|RAM~1clkctrl_outclk $end
$var wire 1 $! inst19|B0~combout $end
$var wire 1 %! inst14|RAM~4_combout $end
$var wire 1 &! inst19|B1~combout $end
$var wire 1 '! MBSelect|$00000|auto_generated|result_node[3]~0_combout $end
$var wire 1 (! MBSelect|$00000|auto_generated|result_node[3]~1_combout $end
$var wire 1 )! inst9|inst6~regout $end
$var wire 1 *! MuxA|inst2|$00000|auto_generated|result_node[3]~0_combout $end
$var wire 1 +! inst19|WideOr2~3_combout $end
$var wire 1 ,! inst19|WideOr2~3clkctrl_outclk $end
$var wire 1 -! inst1|Add1~0_combout $end
$var wire 1 .! inst1|G[0]~9_combout $end
$var wire 1 /! inst9|inst9~regout $end
$var wire 1 0! inst5|inst9~regout $end
$var wire 1 1! MBSelect|$00000|auto_generated|result_node[0]~6_combout $end
$var wire 1 2! MBSelect|$00000|auto_generated|result_node[0]~7_combout $end
$var wire 1 3! inst1|Add1~1 $end
$var wire 1 4! inst1|Add1~2_combout $end
$var wire 1 5! inst1|G[1]~8_combout $end
$var wire 1 6! inst9|inst4~regout $end
$var wire 1 7! inst5|inst4~regout $end
$var wire 1 8! MuxA|inst2|$00000|auto_generated|result_node[1]~2_combout $end
$var wire 1 9! inst1|Add1~3 $end
$var wire 1 :! inst1|Add1~4_combout $end
$var wire 1 ;! inst1|G[2]~6_combout $end
$var wire 1 <! inst5|inst5~feeder_combout $end
$var wire 1 =! inst5|inst5~regout $end
$var wire 1 >! inst9|inst5~feeder_combout $end
$var wire 1 ?! inst9|inst5~regout $end
$var wire 1 @! MBSelect|$00000|auto_generated|result_node[2]~2_combout $end
$var wire 1 A! MBSelect|$00000|auto_generated|result_node[2]~3_combout $end
$var wire 1 B! inst1|Add1~5 $end
$var wire 1 C! inst1|Add1~6_combout $end
$var wire 1 D! inst1|G[3]~7_combout $end
$var wire 1 E! inst5|inst6~regout $end
$var wire 1 F! inst1|always0~2_combout $end
$var wire 1 G! inst11~regout $end
$var wire 1 H! inst16|endereco [4] $end
$var wire 1 I! inst16|endereco [3] $end
$var wire 1 J! inst16|endereco [2] $end
$var wire 1 K! inst16|endereco [1] $end
$var wire 1 L! inst16|endereco [0] $end
$var wire 1 M! inst16|endereco_instrucao [4] $end
$var wire 1 N! inst16|endereco_instrucao [3] $end
$var wire 1 O! inst16|endereco_instrucao [2] $end
$var wire 1 P! inst16|endereco_instrucao [1] $end
$var wire 1 Q! inst16|endereco_instrucao [0] $end
$var wire 1 R! inst19|Const_in [3] $end
$var wire 1 S! inst19|Const_in [2] $end
$var wire 1 T! inst19|Const_in [1] $end
$var wire 1 U! inst19|Const_in [0] $end
$upscope $end
$upscope $end
$enddefinitions $end
#0
$dumpvars
0!
1"
0#
1$
0%
0&
1'
0(
0)
0*
0+
00
0/
0.
0-
0,
1:
19
08
07
06
05
04
13
02
01
0;
1<
0=
0>
0?
0C
0B
0A
0@
0G
0F
0E
0D
0K
0J
0I
0H
0O
0N
0M
0L
1P
0Q
xR
0S
1T
xU
1V
1W
1X
1Y
0Z
1[
0\
0]
0^
1_
1`
0a
0b
0c
1d
0e
0f
0g
0h
0i
0j
0k
0l
1m
0n
0o
0p
1q
0r
0s
0t
0u
1v
0w
1x
0y
0z
1{
1|
0}
0~
0!!
1"!
1#!
x$!
1%!
x&!
0'!
0(!
0)!
0*!
1+!
1,!
1-!
1.!
0/!
00!
01!
12!
03!
14!
15!
06!
07!
08!
19!
0:!
0;!
0<!
0=!
0>!
0?!
0@!
0A!
0B!
0C!
0D!
0E!
0F!
0G!
0L!
0K!
0J!
0I!
0H!
0Q!
0P!
0O!
0N!
0M!
1U!
1T!
zS!
zR!
$end
#30
0"
0{
0R
0|
0d
0'
#1500000
1!
1a
1b
1R
1L!
1n
1i
0Y
1j
0m
1k
#1500030
1"
1{
0R
1|
1d
1'
17!
10!
18!
x^
x1!
0`
1B
1C
09!
04!
13!
0-!
1:!
05!
14!
0.!
1;!
15!
1>!
1<!
#3000000
0!
0a
0b
1R
#3000030
0"
0{
0R
0|
0d
0'
#4500000
1!
1a
1b
1R
1Q!
0L!
1K!
0%!
1~
1y
0n
0i
1Y
0q
0j
1f
10
0T!
1!!
1z
1q
1j
1m
1Z
0k
09
16
15
0_
08!
1`
0Z
1k
1h
1?
0<
19!
03!
1-!
0h
0:!
04!
1.!
0;!
05!
0>!
0<!
#4500030
1"
1{
0R
1}
1c
1*
1/!
0`
1O
13!
0-!
14!
0.!
15!
#6000000
0!
0a
0b
1R
#6000030
0"
0{
0R
0}
0c
0*
#7500000
1!
1a
1b
1R
0Q!
1L!
1P!
05!
1%!
0~
0y
1w
1n
1l
1i
0Y
0+!
0x
0,!
00
1/
0m
0q
0j
0%!
19
06
05
14
12
0:
0P
1Z
0k
09
1h
07!
00!
0/!
0^
01!
1`
0B
0C
0O
03!
1-!
04!
#7500030
1"
1{
0R
#9000000
0!
0a
0b
1R
1e
0n
1m
0h
0f
#9000030
0"
0{
0R
#10500000
1!
1a
1b
1R
0K!
0P!
0l
1q
1j
1.!
1+!
1x
0w
1,!
0/
0Z
1%!
0!!
0z
1:
04
02
1P
1T!
19
0?
1<
1_
14!
15!
#10500030
1"
1{
0R
1|
1d
1'
17!
10!
18!
x^
x1!
0`
1B
1C
09!
04!
13!
0-!
1:!
05!
14!
0.!
1;!
15!
1>!
1<!
#12000000
0!
0a
0b
1R
0e
1n
0m
1k
#12000030
0"
0{
0R
0|
0d
0'
#13500000
1!
1a
1b
1R
1Q!
0L!
1K!
0%!
1~
1y
0n
0i
1Y
0q
0j
1f
10
0T!
1!!
1z
1q
1j
1m
1Z
0k
09
16
15
0_
08!
1`
0Z
1k
1h
1?
0<
19!
03!
1-!
0h
0:!
04!
1.!
0;!
05!
0>!
0<!
#13500030
1"
1{
0R
1}
1c
1*
1/!
0`
1O
13!
0-!
14!
0.!
15!
#15000000
0!
0a
0b
1R
#15000030
0"
0{
0R
0}
0c
0*
#16500000
1!
1a
1b
1R
0Q!
1L!
1P!
05!
1%!
0~
0y
1w
1n
1l
1i
0Y
0+!
0x
0,!
00
1/
0m
0q
0j
0%!
19
06
05
14
12
0:
0P
1Z
0k
09
1h
07!
00!
0/!
0^
01!
1`
0B
0C
0O
03!
1-!
04!
#16500030
1"
1{
0R
#18000000
0!
0a
0b
1R
1e
0n
1m
0h
0f
#18000030
0"
0{
0R
#19500000
1!
1a
1b
1R
0K!
0P!
0l
1q
1j
1.!
1+!
1x
0w
1,!
0/
0Z
1%!
0!!
0z
1:
04
02
1P
1T!
19
0?
1<
1_
14!
15!
#19500030
1"
1{
0R
1|
1d
1'
17!
10!
18!
x^
x1!
0`
1B
1C
09!
04!
13!
0-!
1:!
05!
14!
0.!
1;!
15!
1>!
1<!
#21000000
0!
0a
0b
1R
0e
1n
0m
1k
#21000030
0"
0{
0R
0|
0d
0'
#22500000
1!
1a
1b
1R
1Q!
0L!
1K!
0%!
1~
1y
0n
0i
1Y
0q
0j
1f
10
0T!
1!!
1z
1q
1j
1m
1Z
0k
09
16
15
0_
08!
1`
0Z
1k
1h
1?
0<
19!
03!
1-!
0h
0:!
04!
1.!
0;!
05!
0>!
0<!
#22500030
1"
1{
0R
1}
1c
1*
1/!
0`
1O
13!
0-!
14!
0.!
15!
#24000000
0!
0a
0b
1R
#24000030
0"
0{
0R
0}
0c
0*
#25500000
1!
1a
1b
1R
0Q!
1L!
1P!
05!
1%!
0~
0y
1w
1n
1l
1i
0Y
0+!
0x
0,!
00
1/
0m
0q
0j
0%!
19
06
05
14
12
0:
0P
1Z
0k
09
1h
07!
00!
0/!
0^
01!
1`
0B
0C
0O
03!
1-!
04!
#25500030
1"
1{
0R
#27000000
0!
0a
0b
1R
1e
0n
1m
0h
0f
#27000030
0"
0{
0R
#28500000
1!
1a
1b
1R
0K!
0P!
0l
1q
1j
1.!
1+!
1x
0w
1,!
0/
0Z
1%!
0!!
0z
1:
04
02
1P
1T!
19
0?
1<
1_
14!
15!
#28500030
1"
1{
0R
1|
1d
1'
17!
10!
18!
x^
x1!
0`
1B
1C
09!
04!
13!
0-!
1:!
05!
14!
0.!
1;!
15!
1>!
1<!
#30000000
0!
0a
0b
1R
0e
1n
0m
1k
#30000030
0"
0{
0R
0|
0d
0'
#31500000
1!
1a
1b
1R
1Q!
0L!
1K!
0%!
1~
1y
0n
0i
1Y
0q
0j
1f
10
0T!
1!!
1z
1q
1j
1m
1Z
0k
09
16
15
0_
08!
1`
0Z
1k
1h
1?
0<
19!
03!
1-!
0h
0:!
04!
1.!
0;!
05!
0>!
0<!
#31500030
1"
1{
0R
1}
1c
1*
1/!
0`
1O
13!
0-!
14!
0.!
15!
#33000000
0!
0a
0b
1R
#33000030
0"
0{
0R
0}
0c
0*
#34500000
1!
1a
1b
1R
0Q!
1L!
1P!
05!
1%!
0~
0y
1w
1n
1l
1i
0Y
0+!
0x
0,!
00
1/
0m
0q
0j
0%!
19
06
05
14
12
0:
0P
1Z
0k
09
1h
07!
00!
0/!
0^
01!
1`
0B
0C
0O
03!
1-!
04!
#34500030
1"
1{
0R
#36000000
0!
0a
0b
1R
1e
0n
1m
0h
0f
#36000030
0"
0{
0R
#37500000
1!
1a
1b
1R
0K!
0P!
0l
1q
1j
1.!
1+!
1x
0w
1,!
0/
0Z
1%!
0!!
0z
1:
04
02
1P
1T!
19
0?
1<
1_
14!
15!
#37500030
1"
1{
0R
1|
1d
1'
17!
10!
18!
x^
x1!
0`
1B
1C
09!
04!
13!
0-!
1:!
05!
14!
0.!
1;!
15!
1>!
1<!
#39000000
0!
0a
0b
1R
0e
1n
0m
1k
#39000030
0"
0{
0R
0|
0d
0'
#40500000
1!
1a
1b
1R
1Q!
0L!
1K!
0%!
1~
1y
0n
0i
1Y
0q
0j
1f
10
0T!
1!!
1z
1q
1j
1m
1Z
0k
09
16
15
0_
08!
1`
0Z
1k
1h
1?
0<
19!
03!
1-!
0h
0:!
04!
1.!
0;!
05!
0>!
0<!
#40500030
1"
1{
0R
1}
1c
1*
1/!
0`
1O
13!
0-!
14!
0.!
15!
#42000000
0!
0a
0b
1R
#42000030
0"
0{
0R
0}
0c
0*
#43500000
1!
1a
1b
1R
0Q!
1L!
1P!
05!
1%!
0~
0y
1w
1n
1l
1i
0Y
0+!
0x
0,!
00
1/
0m
0q
0j
0%!
19
06
05
14
12
0:
0P
1Z
0k
09
1h
07!
00!
0/!
0^
01!
1`
0B
0C
0O
03!
1-!
04!
#43500030
1"
1{
0R
#45000000
0!
0a
0b
1R
1e
0n
1m
0h
0f
#45000030
0"
0{
0R
#46500000
1!
1a
1b
1R
0K!
0P!
0l
1q
1j
1.!
1+!
1x
0w
1,!
0/
0Z
1%!
0!!
0z
1:
04
02
1P
1T!
19
0?
1<
1_
14!
15!
#46500030
1"
1{
0R
1|
1d
1'
17!
10!
18!
x^
x1!
0`
1B
1C
09!
04!
13!
0-!
1:!
05!
14!
0.!
1;!
15!
1>!
1<!
#48000000
0!
0a
0b
1R
0e
1n
0m
1k
#48000030
0"
0{
0R
0|
0d
0'
#49500000
1!
1a
1b
1R
1Q!
0L!
1K!
0%!
1~
1y
0n
0i
1Y
0q
0j
1f
10
0T!
1!!
1z
1q
1j
1m
1Z
0k
09
16
15
0_
08!
1`
0Z
1k
1h
1?
0<
19!
03!
1-!
0h
0:!
04!
1.!
0;!
05!
0>!
0<!
#49500030
1"
1{
0R
1}
1c
1*
1/!
0`
1O
13!
0-!
14!
0.!
15!
#51000000
0!
0a
0b
1R
#51000030
0"
0{
0R
0}
0c
0*
#52500000
1!
1a
1b
1R
0Q!
1L!
1P!
05!
1%!
0~
0y
1w
1n
1l
1i
0Y
0+!
0x
0,!
00
1/
0m
0q
0j
0%!
19
06
05
14
12
0:
0P
1Z
0k
09
1h
07!
00!
0/!
0^
01!
1`
0B
0C
0O
03!
1-!
04!
#52500030
1"
1{
0R
#54000000
0!
0a
0b
1R
1e
0n
1m
0h
0f
#54000030
0"
0{
0R
#55500000
1!
1a
1b
1R
0K!
0P!
0l
1q
1j
1.!
1+!
1x
0w
1,!
0/
0Z
1%!
0!!
0z
1:
04
02
1P
1T!
19
0?
1<
1_
14!
15!
#55500030
1"
1{
0R
1|
1d
1'
17!
10!
18!
x^
x1!
0`
1B
1C
09!
04!
13!
0-!
1:!
05!
14!
0.!
1;!
15!
1>!
1<!
#57000000
0!
0a
0b
1R
0e
1n
0m
1k
#57000030
0"
0{
0R
0|
0d
0'
#58500000
1!
1a
1b
1R
1Q!
0L!
1K!
0%!
1~
1y
0n
0i
1Y
0q
0j
1f
10
0T!
1!!
1z
1q
1j
1m
1Z
0k
09
16
15
0_
08!
1`
0Z
1k
1h
1?
0<
19!
03!
1-!
0h
0:!
04!
1.!
0;!
05!
0>!
0<!
#58500030
1"
1{
0R
1}
1c
1*
1/!
0`
1O
13!
0-!
14!
0.!
15!
#60000000
0!
0a
0b
1R
#60000030
0"
0{
0R
0}
0c
0*
#61500000
1!
1a
1b
1R
0Q!
1L!
1P!
05!
1%!
0~
0y
1w
1n
1l
1i
0Y
0+!
0x
0,!
00
1/
0m
0q
0j
0%!
19
06
05
14
12
0:
0P
1Z
0k
09
1h
07!
00!
0/!
0^
01!
1`
0B
0C
0O
03!
1-!
04!
#61500030
1"
1{
0R
#63000000
0!
0a
0b
1R
1e
0n
1m
0h
0f
#63000030
0"
0{
0R
#64500000
1!
1a
1b
1R
0K!
0P!
0l
1q
1j
1.!
1+!
1x
0w
1,!
0/
0Z
1%!
0!!
0z
1:
04
02
1P
1T!
19
0?
1<
1_
14!
15!
#64500030
1"
1{
0R
1|
1d
1'
17!
10!
18!
x^
x1!
0`
1B
1C
09!
04!
13!
0-!
1:!
05!
14!
0.!
1;!
15!
1>!
1<!
#66000000
0!
0a
0b
1R
0e
1n
0m
1k
#66000030
0"
0{
0R
0|
0d
0'
#67500000
1!
1a
1b
1R
1Q!
0L!
1K!
0%!
1~
1y
0n
0i
1Y
0q
0j
1f
10
0T!
1!!
1z
1q
1j
1m
1Z
0k
09
16
15
0_
08!
1`
0Z
1k
1h
1?
0<
19!
03!
1-!
0h
0:!
04!
1.!
0;!
05!
0>!
0<!
#67500030
1"
1{
0R
1}
1c
1*
1/!
0`
1O
13!
0-!
14!
0.!
15!
#69000000
0!
0a
0b
1R
#69000030
0"
0{
0R
0}
0c
0*
#70500000
1!
1a
1b
1R
0Q!
1L!
1P!
05!
1%!
0~
0y
1w
1n
1l
1i
0Y
0+!
0x
0,!
00
1/
0m
0q
0j
0%!
19
06
05
14
12
0:
0P
1Z
0k
09
1h
07!
00!
0/!
0^
01!
1`
0B
0C
0O
03!
1-!
04!
#70500030
1"
1{
0R
#72000000
0!
0a
0b
1R
1e
0n
1m
0h
0f
#72000030
0"
0{
0R
#73500000
1!
1a
1b
1R
0K!
0P!
0l
1q
1j
1.!
1+!
1x
0w
1,!
0/
0Z
1%!
0!!
0z
1:
04
02
1P
1T!
19
0?
1<
1_
14!
15!
#73500030
1"
1{
0R
1|
1d
1'
17!
10!
18!
x^
x1!
0`
1B
1C
09!
04!
13!
0-!
1:!
05!
14!
0.!
1;!
15!
1>!
1<!
#75000000
0!
0a
0b
1R
0e
1n
0m
1k
#75000030
0"
0{
0R
0|
0d
0'
#76500000
1!
1a
1b
1R
1Q!
0L!
1K!
0%!
1~
1y
0n
0i
1Y
0q
0j
1f
10
0T!
1!!
1z
1q
1j
1m
1Z
0k
09
16
15
0_
08!
1`
0Z
1k
1h
1?
0<
19!
03!
1-!
0h
0:!
04!
1.!
0;!
05!
0>!
0<!
#76500030
1"
1{
0R
1}
1c
1*
1/!
0`
1O
13!
0-!
14!
0.!
15!
#78000000
0!
0a
0b
1R
#78000030
0"
0{
0R
0}
0c
0*
#79500000
1!
1a
1b
1R
0Q!
1L!
1P!
05!
1%!
0~
0y
1w
1n
1l
1i
0Y
0+!
0x
0,!
00
1/
0m
0q
0j
0%!
19
06
05
14
12
0:
0P
1Z
0k
09
1h
07!
00!
0/!
0^
01!
1`
0B
0C
0O
03!
1-!
04!
#79500030
1"
1{
0R
#81000000
0!
0a
0b
1R
1e
0n
1m
0h
0f
#81000030
0"
0{
0R
#82500000
1!
1a
1b
1R
0K!
0P!
0l
1q
1j
1.!
1+!
1x
0w
1,!
0/
0Z
1%!
0!!
0z
1:
04
02
1P
1T!
19
0?
1<
1_
14!
15!
#82500030
1"
1{
0R
1|
1d
1'
17!
10!
18!
x^
x1!
0`
1B
1C
09!
04!
13!
0-!
1:!
05!
14!
0.!
1;!
15!
1>!
1<!
#84000000
0!
0a
0b
1R
0e
1n
0m
1k
#84000030
0"
0{
0R
0|
0d
0'
#85500000
1!
1a
1b
1R
1Q!
0L!
1K!
0%!
1~
1y
0n
0i
1Y
0q
0j
1f
10
0T!
1!!
1z
1q
1j
1m
1Z
0k
09
16
15
0_
08!
1`
0Z
1k
1h
1?
0<
19!
03!
1-!
0h
0:!
04!
1.!
0;!
05!
0>!
0<!
#85500030
1"
1{
0R
1}
1c
1*
1/!
0`
1O
13!
0-!
14!
0.!
15!
#87000000
0!
0a
0b
1R
#87000030
0"
0{
0R
0}
0c
0*
#88500000
1!
1a
1b
1R
0Q!
1L!
1P!
05!
1%!
0~
0y
1w
1n
1l
1i
0Y
0+!
0x
0,!
00
1/
0m
0q
0j
0%!
19
06
05
14
12
0:
0P
1Z
0k
09
1h
07!
00!
0/!
0^
01!
1`
0B
0C
0O
03!
1-!
04!
#88500030
1"
1{
0R
#90000000
0!
0a
0b
1R
1e
0n
1m
0h
0f
#90000030
0"
0{
0R
#91500000
1!
1a
1b
1R
0K!
0P!
0l
1q
1j
1.!
1+!
1x
0w
1,!
0/
0Z
1%!
0!!
0z
1:
04
02
1P
1T!
19
0?
1<
1_
14!
15!
#91500030
1"
1{
0R
1|
1d
1'
17!
10!
18!
x^
x1!
0`
1B
1C
09!
04!
13!
0-!
1:!
05!
14!
0.!
1;!
15!
1>!
1<!
#93000000
0!
0a
0b
1R
0e
1n
0m
1k
#93000030
0"
0{
0R
0|
0d
0'
#94500000
1!
1a
1b
1R
1Q!
0L!
1K!
0%!
1~
1y
0n
0i
1Y
0q
0j
1f
10
0T!
1!!
1z
1q
1j
1m
1Z
0k
09
16
15
0_
08!
1`
0Z
1k
1h
1?
0<
19!
03!
1-!
0h
0:!
04!
1.!
0;!
05!
0>!
0<!
#94500030
1"
1{
0R
1}
1c
1*
1/!
0`
1O
13!
0-!
14!
0.!
15!
#96000000
0!
0a
0b
1R
#96000030
0"
0{
0R
0}
0c
0*
#97500000
1!
1a
1b
1R
0Q!
1L!
1P!
05!
1%!
0~
0y
1w
1n
1l
1i
0Y
0+!
0x
0,!
00
1/
0m
0q
0j
0%!
19
06
05
14
12
0:
0P
1Z
0k
09
1h
07!
00!
0/!
0^
01!
1`
0B
0C
0O
03!
1-!
04!
#97500030
1"
1{
0R
#99000000
0!
0a
0b
1R
1e
0n
1m
0h
0f
#99000030
0"
0{
0R
